<?xml version="1.0" encoding="UTF-8" standalone="no"?>
<!-- Created with Inkscape (http://www.inkscape.org/) -->

<svg
   width="206.48694mm"
   height="72.409492mm"
   viewBox="0 0 206.48694 72.409492"
   version="1.1"
   id="svg1"
   xml:space="preserve"
   inkscape:version="1.3.2 (091e20ef0f, 2023-11-25, custom)"
   sodipodi:docname="moda.svg"
   inkscape:export-filename="moda.png"
   inkscape:export-xdpi="120"
   inkscape:export-ydpi="120"
   xmlns:inkscape="http://www.inkscape.org/namespaces/inkscape"
   xmlns:sodipodi="http://sodipodi.sourceforge.net/DTD/sodipodi-0.dtd"
   xmlns:xlink="http://www.w3.org/1999/xlink"
   xmlns="http://www.w3.org/2000/svg"
   xmlns:svg="http://www.w3.org/2000/svg"><sodipodi:namedview
     id="namedview1"
     pagecolor="#505050"
     bordercolor="#eeeeee"
     borderopacity="1"
     inkscape:showpageshadow="0"
     inkscape:pageopacity="0"
     inkscape:pagecheckerboard="0"
     inkscape:deskcolor="#505050"
     inkscape:document-units="mm"
     showguides="true"
     inkscape:zoom="1.0762053"
     inkscape:cx="382.82659"
     inkscape:cy="198.84682"
     inkscape:window-width="956"
     inkscape:window-height="1080"
     inkscape:window-x="0"
     inkscape:window-y="0"
     inkscape:window-maximized="1"
     inkscape:current-layer="layer1"><sodipodi:guide
       position="267.86405,96.978602"
       orientation="1,0"
       id="guide3"
       inkscape:locked="false" /><sodipodi:guide
       position="279.54185,160.66907"
       orientation="0,-1"
       id="guide4"
       inkscape:locked="false" /><sodipodi:guide
       position="116.80307,76.40103"
       orientation="0,-1"
       id="guide5"
       inkscape:locked="false" /><sodipodi:guide
       position="355.26315,83.472677"
       orientation="1,0"
       id="guide6"
       inkscape:locked="false" /><sodipodi:guide
       position="274.99365,82.243435"
       orientation="1,0"
       id="guide7"
       inkscape:locked="false" /><sodipodi:guide
       position="331.50634,87.335341"
       orientation="0,-1"
       id="guide14"
       inkscape:locked="false" /><sodipodi:guide
       position="283.96712,54.954265"
       orientation="0,-1"
       id="guide15"
       inkscape:locked="false" /></sodipodi:namedview><defs
     id="defs1"><marker
       style="overflow:visible"
       id="ArrowWideHeavy"
       refX="0"
       refY="0"
       orient="auto-start-reverse"
       inkscape:stockid="Wide, heavy arrow"
       markerWidth="1"
       markerHeight="1"
       viewBox="0 0 1 1"
       inkscape:isstock="true"
       inkscape:collect="always"
       preserveAspectRatio="xMidYMid"><path
         style="fill:context-stroke;fill-rule:evenodd;stroke:none"
         d="m 1,0 -3,3 h -2 l 3,-3 -3,-3 h 2 z"
         id="path3" /></marker></defs><g
     inkscape:label="Layer 1"
     inkscape:groupmode="layer"
     id="layer1"
     transform="translate(218.19446,-112.71251)"><rect
       style="fill:#ffffff;fill-opacity:1;stroke:none;stroke-width:0.353236"
       id="rect45"
       width="206.48694"
       height="72.409492"
       x="1.8520834"
       y="112.7125" /><text
       xml:space="preserve"
       style="font-style:normal;font-variant:normal;font-weight:normal;font-stretch:normal;font-size:14.2809px;font-family:'Latin Modern Math';-inkscape-font-specification:'Latin Modern Math';fill:#000000;stroke-width:1.19194"
       x="104.95274"
       y="125.4893"
       id="text23"><tspan
         sodipodi:role="line"
         id="tspan23"
         style="font-style:normal;font-variant:normal;font-weight:normal;font-stretch:normal;font-family:'Latin Modern Math';-inkscape-font-specification:'Latin Modern Math';text-align:center;text-anchor:middle;stroke-width:1.19195"
         x="104.95274"
         y="125.4893">Moda</tspan></text><text
       xml:space="preserve"
       style="font-style:normal;font-variant:normal;font-weight:normal;font-stretch:normal;font-size:15.7784px;font-family:'Latin Modern Math';-inkscape-font-specification:'Latin Modern Math';fill:#000000;stroke-width:1.31695"
       x="99.075256"
       y="166.27527"
       id="text24"><tspan
         sodipodi:role="line"
         id="tspan24"
         style="stroke-width:1.31695"
         x="99.075256"
         y="166.27527">=</tspan></text><text
       xml:space="preserve"
       style="font-style:normal;font-variant:normal;font-weight:normal;font-stretch:normal;font-size:15.7784px;font-family:'Latin Modern Math';-inkscape-font-specification:'Latin Modern Math';fill:#000000;stroke-width:1.31695"
       x="132.17308"
       y="99.169754"
       id="text25"
       transform="rotate(45)"><tspan
         sodipodi:role="line"
         style="stroke-width:1.31695"
         x="132.17308"
         y="99.169754"
         id="tspan25">+</tspan></text><text
       xml:space="preserve"
       style="font-style:normal;font-variant:normal;font-weight:normal;font-stretch:normal;font-size:15.7784px;font-family:'Latin Modern Math';-inkscape-font-specification:'Latin Modern Math';fill:#000000;stroke-width:1.31695"
       x="156.41002"
       y="74.932808"
       id="text26"
       transform="rotate(45)"><tspan
         sodipodi:role="line"
         style="stroke-width:1.31695"
         x="156.41002"
         y="74.932808"
         id="tspan26">+</tspan></text><rect
       style="fill:#80b3ff;stroke:#000000;stroke-width:0.0975579;stroke-dasharray:none"
       id="rect23"
       width="13.755836"
       height="14.518739"
       x="6.4502048"
       y="157.87553" /><text
       xml:space="preserve"
       style="font-style:normal;font-variant:normal;font-weight:normal;font-stretch:normal;font-size:6.02989px;font-family:'Latin Modern Math';-inkscape-font-specification:'Latin Modern Math';fill:#1a1a1a;stroke:none;stroke-width:0.503282"
       x="11.823662"
       y="167.21336"
       id="text30"><tspan
         sodipodi:role="line"
         id="tspan30"
         style="fill:#1a1a1a;stroke:none;stroke-width:0.503284"
         x="11.823662"
         y="167.21336">3</tspan></text><rect
       style="fill:#80b3ff;stroke:#000000;stroke-width:0.0975579;stroke-dasharray:none"
       id="rect22"
       width="13.755836"
       height="39.001232"
       x="40.726418"
       y="133.39304" /><text
       xml:space="preserve"
       style="font-style:normal;font-variant:normal;font-weight:normal;font-stretch:normal;font-size:6.02989px;font-family:'Latin Modern Math';-inkscape-font-specification:'Latin Modern Math';fill:#1a1a1a;stroke:none;stroke-width:0.503282"
       x="46.099876"
       y="154.83528"
       id="text31"><tspan
         sodipodi:role="line"
         id="tspan31"
         style="fill:#1a1a1a;stroke:none;stroke-width:0.503284"
         x="46.099876"
         y="154.83528">8</tspan></text><rect
       style="fill:#80b3ff;stroke:#000000;stroke-width:0.0975579;stroke-dasharray:none"
       id="rect24"
       width="13.755836"
       height="19.500618"
       x="75.002632"
       y="152.89366" /><text
       xml:space="preserve"
       style="font-style:normal;font-variant:normal;font-weight:normal;font-stretch:normal;font-size:6.02989px;font-family:'Latin Modern Math';-inkscape-font-specification:'Latin Modern Math';fill:#1a1a1a;stroke:none;stroke-width:0.503282"
       x="80.376091"
       y="164.68507"
       id="text32"><tspan
         sodipodi:role="line"
         id="tspan32"
         style="fill:#1a1a1a;stroke:none;stroke-width:0.503284"
         x="80.376091"
         y="164.68507">4</tspan></text><g
       id="g3"><text
         xml:space="preserve"
         style="font-style:normal;font-variant:normal;font-weight:normal;font-stretch:normal;font-size:15.7784px;font-family:'Latin Modern Math';-inkscape-font-specification:'Latin Modern Math';fill:#000000;stroke-width:1.31695"
         x="213.67889"
         y="17.663946"
         id="text27"
         transform="rotate(45)"><tspan
           sodipodi:role="line"
           style="stroke-width:1.31695"
           x="213.67889"
           y="17.663946"
           id="tspan27">+</tspan></text><text
         xml:space="preserve"
         style="font-style:normal;font-variant:normal;font-weight:normal;font-stretch:normal;font-size:15.7784px;font-family:'Latin Modern Math';-inkscape-font-specification:'Latin Modern Math';fill:#000000;stroke-width:1.31695"
         x="237.77679"
         y="-6.4339533"
         id="text28"
         transform="rotate(45)"><tspan
           sodipodi:role="line"
           style="stroke-width:1.31695"
           x="237.77679"
           y="-6.4339533"
           id="tspan28">+</tspan></text><rect
         style="fill:#99ff55;stroke:#000000;stroke-width:0.0975579;stroke-dasharray:none"
         id="rect28"
         width="13.755836"
         height="23.819399"
         x="121.81516"
         y="148.57486" /><text
         xml:space="preserve"
         style="font-style:normal;font-variant:normal;font-weight:normal;font-stretch:normal;font-size:6.02989px;font-family:'Latin Modern Math';-inkscape-font-specification:'Latin Modern Math';text-align:center;text-anchor:middle;fill:#1a1a1a;stroke:none;stroke-width:0.503282"
         x="128.39159"
         y="162.33066"
         id="text33"><tspan
           sodipodi:role="line"
           id="tspan33"
           style="text-align:center;text-anchor:middle;fill:#1a1a1a;stroke:none;stroke-width:0.503284"
           x="128.39159"
           y="162.33066">4.6</tspan></text><rect
         style="fill:none;stroke:#1a1a1a;stroke-width:0.0982132"
         id="rect29"
         width="13.755836"
         height="23.819399"
         x="155.89471"
         y="148.57487" /><rect
         style="fill:#99ff55;stroke:#000000;stroke-width:0.0975579;stroke-dasharray:none"
         id="rect33"
         width="13.755836"
         height="23.819399"
         x="155.89471"
         y="148.57486" /><text
         xml:space="preserve"
         style="font-style:normal;font-variant:normal;font-weight:normal;font-stretch:normal;font-size:6.02989px;font-family:'Latin Modern Math';-inkscape-font-specification:'Latin Modern Math';text-align:center;text-anchor:middle;fill:#1a1a1a;stroke:none;stroke-width:0.503282"
         x="162.47116"
         y="162.33066"
         id="text34"><tspan
           sodipodi:role="line"
           id="tspan34"
           style="text-align:center;text-anchor:middle;fill:#1a1a1a;stroke:none;stroke-width:0.503284"
           x="162.47116"
           y="162.33066">4.6</tspan></text><rect
         style="fill:none;stroke:#1a1a1a;stroke-width:0.0982132"
         id="rect30"
         width="13.755836"
         height="23.819399"
         x="189.97429"
         y="148.57487" /><rect
         style="fill:#99ff55;stroke:#000000;stroke-width:0.098;stroke-dasharray:none"
         id="rect34"
         width="13.755836"
         height="23.819399"
         x="189.97429"
         y="148.57486" /><text
         xml:space="preserve"
         style="font-style:normal;font-variant:normal;font-weight:normal;font-stretch:normal;font-size:6.02989px;font-family:'Latin Modern Math';-inkscape-font-specification:'Latin Modern Math';text-align:center;text-anchor:middle;fill:#1a1a1a;stroke:none;stroke-width:0.503282"
         x="196.55074"
         y="162.33066"
         id="text35"><tspan
           sodipodi:role="line"
           id="tspan35"
           style="text-align:center;text-anchor:middle;fill:#1a1a1a;stroke:none;stroke-width:0.503284"
           x="196.55074"
           y="162.33066">4.6</tspan></text></g><text
       xml:space="preserve"
       style="font-style:normal;font-variant:normal;font-weight:normal;font-stretch:normal;font-size:5.80724px;font-family:'Latin Modern Math';-inkscape-font-specification:'Latin Modern Math';fill:#000000;fill-opacity:1;stroke:none;stroke-width:0.484697"
       x="47.586914"
       y="181.90828"
       id="text36"><tspan
         sodipodi:role="line"
         id="tspan36"
         style="text-align:center;text-anchor:middle;fill:#000000;fill-opacity:1;stroke-width:0.484698"
         x="47.586914"
         y="181.90828">Producto de cada elemento</tspan></text><text
       xml:space="preserve"
       style="font-style:normal;font-variant:normal;font-weight:normal;font-stretch:normal;font-size:5.80724px;font-family:'Latin Modern Math';-inkscape-font-specification:'Latin Modern Math';fill:#000000;fill-opacity:1;stroke:none;stroke-width:0.484697"
       x="162.72054"
       y="181.37401"
       id="text37"><tspan
         sodipodi:role="line"
         id="tspan37"
         style="text-align:center;text-anchor:middle;fill:#000000;fill-opacity:1;stroke-width:0.484698"
         x="162.72054"
         y="181.37401">Producto de su media geométrica</tspan></text><image
       width="206.48694"
       height="121.90672"
       preserveAspectRatio="none"
       xlink:href="data:image/jpeg;base64,/9j/4AAQSkZJRgABAQAAAQABAAD/2wBDAAMCAgICAgMCAgIDAwMDBAYEBAQEBAgGBgUGCQgKCgkI&#10;CQkKDA8MCgsOCwkJDRENDg8QEBEQCgwSExIQEw8QEBD/2wBDAQMDAwQDBAgEBAgQCwkLEBAQEBAQ&#10;EBAQEBAQEBAQEBAQEBAQEBAQEBAQEBAQEBAQEBAQEBAQEBAQEBAQEBAQEBD/wAARCAEzAggDAREA&#10;AhEBAxEB/8QAHQABAAEFAQEBAAAAAAAAAAAAAAYBAgQFCAMHCf/EAGkQAAEDAwIDAgMNDwsRBgcA&#10;AAABAgMEBQYHEQgSIRMxCUFRFBYiNThhcXJ0srO0tRUZIzI2QlJWdYGSk6TS0xcnNDdFVWVzkZbU&#10;JCVDRkdTVFdiZHaClJWj0eEYg4Wh4/BEWGNmosHD/8QAGwEBAAIDAQEAAAAAAAAAAAAAAAQFAQIG&#10;Awf/xAA3EQEAAQIDBAYJAwUBAQAAAAAAAQIDBBEhBRIxMxMyNEFR8AYUFSIkUmGBoSMlcTVCRJHB&#10;sfH/2gAMAwEAAhEDEQA/AP1TAAAAAAAAAAAAAAAAAAAAAAAAAAAAAAAAAAAAAAAAAAAAAAAAAAAA&#10;AAAAAAAAAAAAAAAAAAAAAAAAAAAAAAAAAAAAAAAAAAAAAAAAAAAAAAAAAAAAAAAAAAAAAAAAAAAA&#10;AAAAAAAAAAAAAAAAAAAAAAAAAAAAAAAAAAAAAAAAAAAAAAAAAAAAAAAAAKboneBUAAAAAAAAAAAA&#10;AAAAAAAAAAAAAAAAAAAAAAAAAAAAAAAAAAAAAAAAAAAHwPjp1jzTQPhjyzVLT6akhv1rfQRUktVT&#10;pNGzt6yGF7uReiqjJHbb9N/EoEA4FuJrU7VS65rpDr1LbH57h60dwjnoabzOyttdXA2WKVGdy7c7&#10;N1RE3SWPpvuqh1nX19Ja6GouVwqGQUtJE+eeV67Njjaiq5yr5ERFUD869DuODiB1Z4qsGttY6z0O&#10;lWpVZfVx+3/M9qVbrfQsmbFO+VfRo50sW69dt2vTbbYD9HAPOKohmc9kUrHujXlejXIqtXyL5APQ&#10;Dz7eJZOySViv5UcrebqjfLt5AOM/Bv5flmV1evfnoya7XjzBqVcIKTzfWPn8zxczvQR86ryN6J6F&#10;Nk9YDsyeeGmiWaeVkbG97nuRqJ99QL2uRybooFQONdYL9cta+PXTjQW211THjmmNtkz3JooJXRpU&#10;Vi7NooZOVeqMc6J+y9HNmdvv02DbeED151l0Ys+mtq0RuVqt99znK4rB5ouFI2oYnaN2Y3ZyKjUV&#10;7mqq7b7IBMOCDiHv3ERo4+7Z1SU9Fm+MXSpx/JqSFixpHWQu6P5F+l5mK1VTuRyPROibIH07WnVC&#10;y6L6VZRqlkDeeixu2zVrokXZ08iJtFC3/Ke9WsT13IByNwK8T3Ehq3rhk2nWutTaFip8Ot+VUdJS&#10;WxtK+j82dhLDGq/TL9BqW7o7dUVE67ou4d3gecFRDUs7WnlZIzu5mORU3+8B6AecNRBUtV8EzJGo&#10;qtVWORU3ToqdAPi9dxLQUXFlbuFl2HSOmuOMPyRt783ojWo18jex7Dk3Vfoe/Nz+PuA+2AfOuIvO&#10;b7pjoNqDqHjC06XfHMbuFyoVqI+0jSeKBzmK5u6cyI5EXbxgcgaJX7wkWueieP62Ydrnpty3yOee&#10;G0XLHEi3bFNLErHzRsXZVdF4kTbm7023A+1cGPFZknEFFmOCao4fBi+pGnNe23ZBQUyuWmkVyva2&#10;WLmVVRFdFIit5nJtyuRyo5Ng6Wnnip41kmlZG1Om73I1N/F1UD0AAecc8UrnsjkY50a8r0RyKrV2&#10;32XyAegADEu6uba6x7HOa5tPIqKi7Ki8q9U9cDknwV+RZFk3CtFc8nv9zvNZ547nElRcKuSolRjX&#10;t2bzvVXbJuvj8agdeTVNPT8vbzxx868redyJzL5E371A9EXcCkkjI2K97mta1FVVVdkRAPhfGvp3&#10;c9TuGjMKDGbhWUd/s1GuQWWpoqh0UjayjRZWta5qpvzta+PZeno/WQCQcLescOvWgOFaposSVV5t&#10;jPmhHG5FSOtjVYqhqbdydrG/ZPJsB9WAAAAAAAAAAAAAAAAAAAAAAAAAAAAAAck+FUXbgezz3TZ/&#10;lKmA+O6uvk4btZeG7i0p07HHsisFuwLM3M3RiRS0zVgneqd/Kiq/r/gjEA+1eEX1HvVg0Xo9G8I3&#10;kzHWS5x4fao2uVHNhmVqVUnTry8jmxqvi7ZFA+RZNpxYtJeO/hO01xxv9b8cwy426F3LyrJ2dNUI&#10;6Rybr6J7uZy9e9ygSjiwyvPNcOKbCeCjDMxuuLY1WWiXJM3uNqesVXNRpz8tM2T61ioxGrt0VZm8&#10;yKjdlDUa/wDALg+imlV91i4Yciy7DM8wumkv8VXHfKioZcGU7eeaOdsrlR28aP27kVURFRWqqAbz&#10;VPjTymj8HTaOIywsjoszyyiprRSrFGiMgukkzoJ5Y2rvsjexqJGIu/c3cDywPwauKwYLa8xuGp+f&#10;Ues9VRRV9RmcN7mdLBcXokjvoSryyRNe5U5XdXIi7uRV6BpfBPx3W1WDXOPKbnFXXSjz+qZc6yJn&#10;KyeoYxe1kamybI53M5E2TooHzDSnK+HrjHybMtZuMHXOzQWd16ntmIYHX5a2101DbY+VWVMkCSxv&#10;e9+6JzORN1Y5V3RWo0J5w557h2jnGhQcPehmskOeaT57YKi40dBHe0uzcfuVOyR7o45kc5WtcyBy&#10;q1V3VJGKu/LzKH6H7AcL8GFRPmPHBxXZ3WU681BdqLHqaZ7uZyRwPmic1PGiKlNEu3d3eQC/wnC7&#10;Xvhx6f3Ubf7+MDzx2V/DL4SO8Yw/+psM4h7Ylzot3KkUd8gRyyNRe7me5JVVPLUx+TYDaccdZLrp&#10;q/pNwWWZ0j6XIrizLczWN23Y2Wjc5Wxv27u0eyTbf69kflAxtG4YaTwp2uNLSxJHFDg1nYyNjUa1&#10;jUit6IiIni2A0N+psh44uMDP9Hsjy6+2nR/R+Onpay1WerfSSXm6SIqL28jfRKxHJMm2/RsbeXZX&#10;ucBG+Jvh9p+ADFLTxKcK1+yCyUuP3Smpcjxqqus1VbblRTycu72SuVd+0VjV2Xf6JzNVrm7qE78I&#10;XqXXyYhovU1t8yPHtIMzvkL84ulne+KpioZI4pKeGR7EVWxvR0quVF/sSbI5dkUPp3D1wy8MGL36&#10;2aucNmU1zbb5klp6intGUzV9quTZY+XmqI3ySIsrVTmRUVqo7qqKvcHIl64NtGYfCL2fRNvnpXHK&#10;7A5bzM52QVK1a1PazJv5oV3acuzU9Dvt/KoH6TaVaY4xo5gtt07w1bgtotSSeZ/N9bJVzfRJHSO5&#10;pJFVy+ieuydyJ0RERAINxm+pM1f/ANDLt8WeBx1wXcffDzoxwoYVp/k1wyOsyay0tYktsttgqp3y&#10;yPrJ5Gsjk5Eicqte3rz7d6KqbATrhMtGeYPDxAccmsmIVuKNzNst7oMdqWqypitlFDLM10m6I5rn&#10;o5rE3ajl5Fdts5AI9w08LkHGrpx/2i+LjJMlyOvzGrqJrLY6e7T0VutFBHO9kTYooVb15mucnX6X&#10;kVd3K5QNnpbDlXBxxtWLhpt+a3u+6Van2ee5WGlvNS6pks9bEyVzoo5HLujdoVTbZEd2rFXdzVco&#10;Yes9p1M1D8I5XaRYPqfccNtmR6cU3zcrqBVWsZQMqXOkjo1XdsU8juRva7btar1Tr0UI9xZcL1o4&#10;JMNt3FHwy5RlNov2L3elW90tbdZq2nvFNK5I3LUo9d13erEcn0qo9eiKjVQJ54TnOJL9wgYNnGO1&#10;9XRw33JbHXQvgmfC9YZ6aaREVWqip0VOnl9gDtDUGRYsDySRj3Nc20Vio5rtlRexd1RU7gOUvBfX&#10;GvunBDbqq43Cqq5fN14b2k8qyP2Sd/TdVXoBj+CWjc/hFYjJHNd55LsjXL15VV7eu3jAwsu4KeEC&#10;0I+48TGuV2v+VTyLUT3vKs5+Z8/au3RqwxJLGyNrd0Rrdl2RETdUA9vBm5/dbhDq9ozNn8ubWPTT&#10;KW0mOXuStbWdta5+2SFjZ2qqSNTzOrk26JzqidNkQPjmjmjGUcUPEHxEabZvn15odLMf1ArK+62e&#10;3VLoaq7VkskscMD5d1VtKxkT3Kxu27nN8iK0P0I0s0kxfSDTW26UY1PcquxWuOeCD5p1S1E6xSyP&#10;kVjpFROZE7RWt6dGoiddtwOT/BF3rtNCczw1FkWPGM5uFLAiu3YyJ8cTkazr0Tm5122Tq5V8YHc4&#10;AAAAAAAAAAAAAAAAAAAAAAAAAAAAADknwqnqHc8902f5SpgJHq7orBxA8DbNNEgbJcazDbfVWhy7&#10;bsuEFNHLT7KvdzPajFX7F7gOVOAa+Zxxea5Y/q7qTQ8tDoNiFNjVCkjlXzTeZUex9U7f69YWvV6e&#10;JyRffD69r+5rfCd8Om7l649efgatQNHxPXWq4YuO3BeK3I6Ktdp1kWPvxHIrlTUrpUtsu7lY6TkR&#10;VRFVYHp43JHIiIqp1CUcVfHHodfdFci060WzWjz/ADrPLdNj1ksthR1VLJJVsWJz38qbMRrHuXld&#10;s5VRERO9UCG678Jud2bwZOPaSWukdW5ZgMFJkdTR0q9qslQySSWriZyovadm2pmVqJ9N2Sbb79Q+&#10;mYV4SfhouOj1oy+qy5Z8okoqenmxGjppJbxJceVGupoqdG7v3k3Rr09Bsu+6dwED8FzS3arodfYM&#10;msk9kudZn9VJXW2dyOlonzRq50LnJ9c1Xcq9O9vcgHyjhGbww8PFwzThq4wcHwa1ZVj9/nqrPfMr&#10;sdPJHdrZKjUieyqljVu27Fcm7kTlkRETdrkQOudF9QOBq+6sMxTh9tWntVl8NvnrnVuL49C1Kama&#10;rGP5quGJGN5u0ROVH9evQDpQDhDhIp24F4QPig0+qfNDH359FlFK1/dJG97pJHJ/rVrUT1k9YD28&#10;J27+vfDj0/uo0Hv4wJZ4TLTW65HoRS6u4ciRZZpBdIcstk6b8zYYntWoRNvEiNZKv8QBGPB4tveu&#10;+Y6lcbuaWpaGtzerZj+O0zn9o2jtVIjUe1i7JujpGMaqptu6F6+MDJ0eRE8Krrr/AKEWj4KgAheO&#10;Z7bOCjjp1Uj1nqpLNgmtLoL3ZMjmgctHHWsVz3Qyva3Zmzpp2r16csbnbI/mQL+ODX/COK3E7Vwk&#10;8M9/pc7yjNbrRyXCotiOlorXb4JGzOqJahG8iIj2sVdlXZqO32VWoodN6l6v8P2hVsxTRvWq+0VF&#10;a77anUFHLe6DtLZVR0zY43RTvVqxMVyOauz9mqiL18QHHuH0ujdh4/dPGcC18insd2o6ybUWix2q&#10;fNY4qRsf0J67bxNcrt/QsXZHpGiI1XLuE011zrGNEfCdYJqZqjdW2DFb1p/NaKe71LHeZWVSSz7s&#10;e9PpdlczdVTZO0aqqiKqoHbenuomFaqYrTZvp7kNNfLFWyTR09dTc3ZyuikdG/l5kRVRHscm/cu2&#10;6bp1A+e8ZvqTNX/9DLt8WeBBvBqU8KcEumT+zZzrS3BFdt19MapO8D7ZrHgn6pmk2ZadRVDaaTJb&#10;DX2qOZ3VInzwPY169F6I5yL94DjPgU4uNMdJdGaXh54h8lptPc504qKq1VFFft6VtRAk73xPje70&#10;DtkfyKm+68qOTdrkUBheQQcZnHzjes2nMFVPpjo1Z6ikZfpKd8UN2uk7JWuZAr2o5zUSVq9ybJFu&#10;uyPbuEe1w1ktGhfhQYM+yOyXWtsUGnMVPd6m3Uzp3WylfM/eskY1FVYmORiP27kdv122UMvjw4nt&#10;O+I7S+1cM/DVlFPneX6jXWhiWG08z4qWkjkSVXTv5dmeiYzdq9Wta9zuVE6hMvCQ6TXum4ILTYMX&#10;oKm7x6dVdmqqlIkV0q0VJC6B8m3eqN52ucvibzKvRFAlGWeED0AzTSfstLbvUZtmWYW2WitGH2ml&#10;kfc3VcsStWOdvLtAxiuXnkf6HZrlbzJtuGl8FlA6HgeoYZFVHMuV6a7rvsqTv8gGi8GtUZLDwEX+&#10;qwmNZchZWZE+0s2R29ajN4E27l3fyd4HyXg7yTgHoNFJ804kq7F7nqq+sr5MuXN4vN12WobK/lZD&#10;DO1z3fQ0jTaNqu5+ZF9F0A+g+C5r7Jc9WuJq5Y3hVRidqq8itc9DZKijSjmoKdy16xxPgTZIlRqp&#10;6FO7dU67ASzgEdtxFcXXcv64DO5UX+y1wHad1ulJZbVW3m4SdnS0FPJVTu+xjY1XOX+RFA4s8EbY&#10;H0/Dffc4lplj8+eY3K5QvVUVZIGdnCiqniVHxyp94Dt8AAAAAAAAAAAAAAAAAAAAAAAAAAAAABgX&#10;ywWPJ7XPY8ks1DdbdU8qTUlbTsnhlRFRyczHorXbKiL1TvRAMqCmp6WCKlpYI4YIWJHHHG1GtY1E&#10;2RrUToiInREQDX2DFsaxdlWzGsdtlpbX1L6yqbQ0kdOk87vppXoxE5nrt1cvVQFXi2NV98osmrse&#10;tlTd7ax0dFcJqSN9TTNcio5scqor2IqKu6IqbgZdwtlvu1FNbbrQ09ZSVLFjmp6iJskcjV72ua7o&#10;qesoEexjSfS7Cq9bph2m+LWKtcxY1qbbZ6emlVq97eeNiLt624ErAilBpRpfashdl1r03xajvj3u&#10;kdc4LPTx1bnO35nLMjOfdd13XfqBurVYLFZJq6os1kt9BLc6l1ZWvpaZkTqqdURFllVqIr3qiJu5&#10;269AMHLMBwbOYYoc1wuw5AynVVhbdbbDVpGq96tSRq7feAvxfCMMwmkfQ4ZiNlsFNI7nfDa6CKlY&#10;52226tjaiKuyd4G8A5P1y0ozvFuMHSjiY00xqsvNLWxyYZm1LQxosjLfLusFW5FVN2Rvdu9e9Ejj&#10;7/EHTl7xfGsldRPyLHrbdHW2obV0S1tJHOtNO36WWPnReR6eJybKgGdV0lNX00tFW08VRT1EbopY&#10;pWI9kjHIqOa5q9FRUVUVF6KgGPZLFZMZtcFjx20UVrt1KitgpKKnZBDEiuVyo1jERrd1VV6J3qqg&#10;eNPi+OUl9q8ppLBbYbzXxNgqriykjbUzxt25WSSonO9qbJsirsmyAMjxfG8wtb7JleP2y9W6RzXv&#10;pLjSR1MDlReiqyRFaqp4l26AYeK6e4DgrJ48IwiwY82p27ZLVbYaRJNt9ubsmt3717/KBk5NieMZ&#10;jbFs2XY5a73QOcj1pblRx1MKuTuXkeipuniXxAY+K4LhOC009HhOH2TH6epekk0Vqt8NIyRydEVy&#10;RtRHKiLtuoF+UYXh+b0cduzPFLNfqSJ/aMgudBFVRsf9kjZGqiL64GfZ7NaMettPZrDaqO22+kZ2&#10;dPSUcDYYYm/YsYxEa1PWRAL7lb6G7UM9rulFBWUVXG6Gop542yRzRuTZzHtcio5qoqoqKmyooFlm&#10;s9ox+2U9lsNqo7bb6RvJT0lHA2GGFu6rysY1Ea1OviQDMVNwIzk+mGm2bVUVbmen2NX+ogbyRS3S&#10;0wVT42/YtdI1VRPWQDdWey2fHrdBZ7BaqO20FM3khpaOBkMMTfI1jERrU9hAOS59Nc3qfCZu1Gmw&#10;65Ow+TTRbXJdn0iuonVCzLvAr9uVXbfWqvdv0A6bxjTHTfCauWvwzT/G7DVTt5JZ7ZaoKWR7d9+V&#10;zo2oqpv4lAkckUcrHRyMRzHIrXNcm6ORe9FTxoBG8c0u00w+vnuuJaeYxZK6qYsc9TbbRT00srFX&#10;dWufGxFcir1VFUDbWLHMfxe2ss2NWK32m3xue9lJQ0rKeFrnqrnKjGIjUVVVVVduqqqgUx/GsdxO&#10;2ts2LWG3We3se6RlLb6VlPC1zl3cqMYiN3Vd1VduoGmq9J9Lq/IvPhW6cYvUX9JEmS6y2infWJIi&#10;bI7tlbz7p5dwNza8dx+z1lfcbRYrdQ1d1kSavnpqVkUlXIiKiPlc1EV7kRV2V269QKWrGccsVTX1&#10;ljsFtt1RdZ1qq+WkpI4X1Uy/2SVzURZH9V9E7dQPjvGwmplbw45TiekWJV2QZNl0bMcp4aVE2p4a&#10;teznnlVejY2xLIiu8Subvsm6oE60K0stmiekGJ6VWp6SQ43bIaN8qd0023NNL/ryOe7/AFgJ2AAA&#10;AAAAAAAAAAAAAAAAAAAAAAAAAAAAAAAAAAAAAAAAAAAAAAAAAAAAAAAAAAACiJsBUAAAAAAAAAAo&#10;ibAVAAAAAAAAAAAAAAAAAAAAAAAAAAAAAAAAAAAAAAAAAAAAAAAAAAAAAAAAAAAAAAAAAAAAAAAA&#10;AAAAAAAAAAAAAAAAAAAAAAAAAAAAAAAAAAAAAAAAAAAAAAAAAAAAAAAp3GKpyjMEXdBExLEKmWQA&#10;AAAAAAAAAAAAAAAAAAAAAAAAAAAAAAAAAAAAAAAAAAAAAAAAAAAAAAACC64awY1oJpdfNWcvpa6p&#10;tNhZC+ohomNdO/tZmRNRiOc1FXmkReqp0RQJrTTx1VPFUxLuyZjZGr5UVN0A9QAAAAAAAAAAAA0+&#10;X1EtJi12qYZHMkjo5nNc1dlReReqL4iPiqt2zVLWrgj2itXV12nNsqK2pknlckm75HK5y+jXvVe8&#10;gbGqm5g6Zn6/+tbetKcJ0Ld6KgAAAAAAAAAAAAAAAAAAAAAAAAAAAAAAAAAAAAAAAAAAAAAAAAAA&#10;AAAAAAcv+Ex9RPqL7S2/KNMB0lYvSS3+5YveIBnAAAAAAAAAAAABHtQX9nhN7d5KGb3ikHH6Yepr&#10;XwaPRBvLpnZ+m27ZF/8AzUjbEjLBU/drb6qelu9AAAAAAAAAAAAAAAAAAAAAAAAAAAAAAAAAAAAA&#10;AAAAAAAAAAAAFAPnepWuWJ6Y3KjsNbasjyC+VsC1bLPjdmnudaylR3ItRJHC1ezi5tmo5ypzLujU&#10;VWu2ZZ8O44ffgmNlyCgvtnt97pEnip7lDHPAyqhfTzIj03Rr4pER7HbL1a5EVF6KguW+jncZ172x&#10;WVicyc7d29/XuEMRrwHTRtRque1OZUam67br6wzPq1NtzDHLvkV3xS33SKa7WJIHXCmRrkdAkzVd&#10;GqqqIi7oir0VdvHsPqNyBy/4TH1E+ovtLb8o0wHSVi9JLf7li94gGcAAAAAAAAAAAKL3ARjUp6sw&#10;K+uT/AZfeqQto5RhqmlzSlrtGURNNrKif3p3v3HhsSPgqfuxan3E4TuLRvCoZAAAAAAAAAAAAAAA&#10;AAAAAAAAAAAAAAAAAAAAAAAAAAAAAAAAAooHwnLrtlGkesd91Bi0zybMbDl1nttG6XHIIqqst1VR&#10;vqfocsD3sXsJGVHM17VXle16OROZqmKYnfkmeH0fLta8Lr82yi8XvPOHHKsxqsoxyghwp8K0sjsT&#10;uHJKkrJJu2RKCVsz4ZVqY1duiJs76FsZi3EXJmnj4sTdztxFXBnag43q3j8GomLfqd5BmVz1Dwa2&#10;Wynu9qSDzG2vpaSohqfNL5ZGuiVXSte3ZrudHbJ6JNj0qrprrmOEPLDxVh/f4zPc9NV9CK7NL3q3&#10;mcuCVdwyKlttjlwutV+0lPWwQK6SSi9EiRyo9rEc9NnOREaqq3oaZU72b2omblqKa+CZ4bprj+J8&#10;WOa5aujrY6rKLbRVtvy2ntkCwxvbG9lZDLUIvaMkkckTuXb0add+nTWieNNPCGe6N7i6CRNjLDmD&#10;wmPqJ9RfaW35RpgOkrF6SW/3LF7xAM4AAAAAAAAAAAAPkOseoD7U64YbWW9G01wtb1p6pHbqs+6p&#10;yK3bZEVOm/rnM7c2h0EdBXTpV3vG9OUPHRbPGVjLXg1BbVkhobb2lVVo7ZGTqu6M5duvReq7942F&#10;tDpYixRTpHeWp0fY0TY6Z7KgAAAAAAAAAAAAAAAAAAAAAAAAAAAAAAAAAAAAAAAAAAAAAAAAAAKb&#10;J5AKgU2AqAA5f8Jj6ifUX2lt+UaYDpKxeklv9yxe8QDOAAAAAAAAAAAFF7gPn2s2DOy/GnS0UfNX&#10;0K9rDsnV3lQqtrbOjaFiaI49zyuUzUt0bwPzn46yetj2uFYiPmXxp0/lGysBGAw/R/3d5TGT6E4t&#10;XquAAAAAAAAAAAAAAAAAAAAAAAAAAAAAAAAAAAAAAAAAAAAAAAAAAAAAAAAA5f8ACY+on1F9pbfl&#10;GmA6SsXpJb/csXvEAzgAAAAAAAAAABh3a5Q2i3zXGoa5zIW7q1u26rvsiJv06qp43bvRUb7EzkwP&#10;m7c1/tZrPx8H55C9dufL+Wk1wqt6uf2tVn46D88xOOuR/Z+WYnNl2m5x3emdUMhfCscskD2PVFc1&#10;7HKiouyqnenlJti901G+3Z57gAAAAAAAAAAAAAAAAAAAAAAAAAAAAAAAAAAAAAAAAAAAAAAAAAAA&#10;AAAADl/wmPqJ9RfaW35RpgOkrF6SW/3LF7xAM4AAAAAAAAAAovcBH8764tWe2h+FaQ8byJYq4Ngn&#10;cVcPA33NJbZtfhv7Guf3Vq/hFLXZ/Ih696Qk5kAAAAAAAAAAAAAAAAAAAAAAAAAAAAAAAAAAAAAA&#10;AAAAAAAAAAAAAAAAABy/4TH1E+ovtLb8o0wHSVi9JLf7li94gGcAAAAAAAAAAUXuAj+d9MWrE/yo&#10;fhWkPG8iWtc6M9XbIhVw8JlbzIaSRObAwt+9Nc/urV/CKWuz+TD2p4pGTm4AAAAAAAAAAAAAAAAA&#10;AAAAAAAAAAAAAAAAAAAAAAAAAAAAAAAAAAAAAADl/wAJj6ifUX2lt+UaYDpKxeklv9yxe8QDOAAA&#10;AAAAAAAKL3BiUfzz6l6v20PwrSHjeRLS5Pu5s1yovQqol4ZvM8pasTC/2LdPurVe/LjZ/IhKoSJO&#10;pObqgU36bgeHm+k/wiP8Nv8AzNt2rwYzg830n+ER/ht/5jdq8DOHu1zXpzNVFRfGhrlkznmqAAAA&#10;AAAAAAAAAAAAAAAAAAAAAAAAAAAAAAAAAAAAAAAAAAAAABy/4TH1E+ovtLb8o0wHSVi9JLf7li94&#10;gGcAAAAAAAAAAUXuDEo/nf1LVftofhWkPHciWlzqMndSmRYW7qp5TLbJi4X+xbp91ar35ebO5EJN&#10;HBI07ic3VAiWqTlTALuidzo2Md67Vkajk++iqhKwcfr0vDE6W5aeTFMV53b4zaO9f/gIvzSxjPJG&#10;3KFPOpin2tWj/YIvzTOrWqijLRs9L2Rw2W5UsMbI4YLzXxxxsajWsb2yrsiJ0ROq9CtxnM+0JGH6&#10;qZkVKAAAAAAAAAAAAAAAAAAAAAAAAAAAAAAAAAAAAAAAAAAAAAAAAAcv+Ex9RPqL7S2/KNMB0lYv&#10;SS3+5YveIBnAAAAAAAAAAFF7gxKP539S1X7aH4VpDx3Ilpc6jIQos0OIeaGsvSXjhP7EuP3Vqvfl&#10;7s7kQk2+qkZObgEQ1VXbALv/ABbPhGkvB8+mXjiuVMseaRUevslpTTnCHmt51M7rWrg9dMV/rZeP&#10;u7X/AAqlTjOZ9oSsLHuymhFSgAAAAAAAAAAAAAAAAAAAAAAAAAAAAAAAAAAAAAAAAAAAAAAAAHL/&#10;AITH1E+ovtLb8o0wHSVi9JLf7li94gGcAAAAAAAAAAUXuDEo/nf1LVftofhWkLHaYeWlzqPbfc56&#10;akSJWoqqpjNmXhhP7DuP3VqvfnRbO5EJdrqJITW4BENVfqAu/wDFs+EaTMHzqXjiuTLBmlTmVdvG&#10;W9MaIGea1ZOncZya1MXFr6zHMKyS/up+38y3i4PSLnRnOvbbInMvROqp1Ku/a6XERb+n/Eq1X0dn&#10;fbbz35b9fiFAn/jH/oj1Kj5/xLPT3J/t/J578q8WJUH++P8A0R6lR8/4Y6e5H9v5bnFciXJLbLWP&#10;o/MstPVTUk0Xac6NfG9WqqO2TdF23ToneRL1uLVe7E5ve1d6Wjebk8nsqAAAAAAAAAAAAAAAAAAA&#10;AAAAAAAAAAAAAAAAAAAAAAAAAAcv+Ex9RPqL7S2/KNMB0lYvSS3+5YveIBnAAAAAAAAU36bgN08o&#10;YzgVU27wxMwj+d/UtV+2h+FaQtoaYeprc1oXczvKc1mhqGc4ZmXnhP7DuP3VqvfnR7O5EJlvqpIT&#10;m4BENVfqAu/8Wz4RpMwXOpeOK5MtQ+Vedyr5S6iNFbnmp2q+Q23SWkdv+pJl2/771vxlCu/zaf4/&#10;49v8Xz4pa9/0V3rLse8RpBEqc4yJlfpl6W3b7t1/wylXi+v9knCdRMyKkgAAAAAAAAAAAAAAAAAA&#10;AAAAAAAAAAAAAAAAAAAAAAAAAABy/wCEx9RPqL7S2/KNMB0lYvSS3+5YveIBnAAAAAAAARPVCV8O&#10;CXVzFcm8bGORFVN2ukaipunXqiqn3yVg4/XpeGJ0tS0T8NxBV287dv8AxX/Us4rr8fxCBFunwW+c&#10;zEftbt/4r/qZ36/E6OnweVq2j04vFLHs2KmvNTFCxO5jErOjU8iJ4kOd2/yqvrEJdvkpgq9eqnH5&#10;vOQ1mcmnF54Su9HcfurVe/Ol2VOeGhYW+qkhYtgCIardNP7wvkiZ8I0mYLnUvHFcmWgkkRXqvrl9&#10;FOiriVO1RENsiZap37UWWL5brWfGUKudMbT57kjjhEmkmb2riXTGjXNTtmmciZZmmCo603R/lvdf&#10;8MpS4zS5l9EvCdRMyKkgAAAAAAAAAAAAAAAAAAAAAAAAAAAAAAAAAAAAAAAAAAAABy/4TH1E+ovt&#10;Lb8o0wHSVi9JLf7li94gGcAAAANHmd5qMfxqtvFGyN9RTtb2SSoqs53ORqboioqpuvlQ9bNvpbkU&#10;vO7c6OiamhfdM8jerPmxY/Z+ZU39JJ8YWzMd/n7IfTV+J81s7/fixf7pm/pI9Us/Xz9menr8WsyO&#10;91990tvdRcUgSopqySje6BisY/sqpGI5GqrlTdERdt19k0w9qLeJppjzoXbnSYaZbF8i9q70S/yl&#10;jEaPKJUWRdvpl/lGTOcNTbVV2nt9cvjv1X8cOa2/y5j6Qk2uSl7l2U4mZzeK5XIppm0eeDKq0dy3&#10;/fWq9+dTsjssLG31EmLNsAQ/Vjpp3e18kDfhGkzBc+nz3PHFcmUYlevOqIvjU6OKdFRvCyeuZ3WN&#10;5hL10eypf4VrV/KkKevt1PnuS6NcI3kkn0VxPinR5xKnaGd0mW00sX+s10+7df8ADKUWN5qbhOom&#10;pESgAAAAAAAAAAAAAAAAAAAAAAAAAAAAAAAAAAAAAAAAAAAAA5f8Jj6ifUX2lt+UaYDpKxeklv8A&#10;csXvEAzgNZkV9p8bstVeqqKSWOmYjlZHtzOVVRERN1ROqqidVPS1bm7XFEPK7c6Kjelon5vd2vVv&#10;nKrF28fm6l/SEz1Kj5/xKP6xc+X8qefi7/aRWf7dS/pB6lR8/wCJPWK/l/LX5df4si0yutxipZKd&#10;0c/maSGRzXOZJHVNY5N2qqL1bvuiixa6LFU08f8A43u1xcsTUyZpEdIrkLCmnKNUeZzW8+6dDO61&#10;qRurXfSjKHeS81nx0i2+2U/x/wAJ7NLcOeqvV3XqT4p0ecSc6+v/ACmcjNr7Wirp1fNv39q/jhyv&#10;pBy6v4hOtclL395xMPDNTdfKebVdgv7CuX3WqvfnVbI7LCxt9RJizbAEP1a6ad3z+Ib8I0mbP1xF&#10;Hnul44rkyiMjt3r18anTQp1u6obRGZLxT9pzK/ulXfGEKS726P4/4l2uyNtI76LJ7dSzpp0h4Zqc&#10;6m26Zt3pX1st0X+G6/4ZTnMdpeWGEn9NNiIlAAAAAAAAAAAAAAAAAAAAAAAAAAAAAAAAAAAAAAAA&#10;AAAAABy/4TH1E+ovtLb8o0wHSVi9JLf7li94gGcBEdVOuBXT2IfhmEnBx+vSj4rlSxpJE7V/rruW&#10;1NOiJmt7RDO6xM6IxKv60+Tr/DVZ8dI1GmMp/j/j1iPhW9fNsu3ToT4peM1RK1Z1UzusTLQzqv6k&#10;GUr/AAvW/HSBTpjafPc3mPhZbOeTaZevT2S1ppzhGzhb2qeX/wAzO4xnC2zIi6c3xfLfKpfyw4/0&#10;g0t1/wAQssLrYSxe84HpohGmXnsiGk3GXtgv7CuX3WqvfnYbI7JCxt9RJizbAEP1bXbTu99P7A34&#10;RpM2d2ijz3S8MVpZlDHu3e72VOrijRT70LVemxndJqhZE7fRrK3eW5V/xgobnbojzwTLfZJZ0kv0&#10;WTp9epb0xpCFMre19Y2iM2M0k0mdvYrkv8N1/wAMpzO0Iyvf6WuDn9OE4ISYAAAAAAAAAAAAAAAA&#10;AAAAAAAAAAAAAAAAAAAAAAAAAAAAAHL/AITH1E+ovtLb8o0wHSVi9JLf7li94gGcBENVXcuBXRdv&#10;7z8MwlYKP16UbGR+jLTyTKsrl3LymlXxVKnbeubbpNTTvX9aLJZP4Xq1/LSvnTG0x54JET8Kz5pv&#10;ozkLWmjRE31vbGdxjfayVObR3KHfZXWsX8tKqrTG0x54JP8AisyaRUkVC4iNELNZ2imciZe1kXfT&#10;S8rv+7VV8cOM9I9KK/stMJV+ili9586yyR5DOjZ64L+w7l91ar352Gx5zwsLC31ckmLVuAQ/V13L&#10;pzfF27oG/CNJmzu0Uee5HxXJqQR8vo3eyp2EU6KOZWLKvcbbrGuS+F36y+Urt33GuX8oOcux+4RC&#10;xtdjllSSJ2smyfXqXVFOiFkt7T1jfdYSnSN3NYLiu37t1/wynL7RjK99oWmD5cJ0V6cAAAAAAAAA&#10;AAAAAAAAAAAAAAAAAAAAAAAAAAAAAAAAAAAAHL/hMfUT6i+0tvyjTAdJWL0kt/uWL3iAZwEO1Z6a&#10;fXV3kSH4ZhMwXaKUfF8qUdfNtK/113OiijRVZ5KduZ3Mjea97v1m8mXb91qz44VFXbqfPclRPwj2&#10;llXtnl5TT7sIWZ25ndGM+TbRjJ37d1zq1/LNymrj4+mPPBNmfhJXzSfR3dxd006IGcLe09g23WM4&#10;Zlgd+tdeX7fu1Vr+WHC+k2lNf2WmEn9DNK1Rd1PnWbxl6b7KazVo2zyeWN3WhsuP3i7XKbsaanuN&#10;VJI/lVyonP4kaiqq+sibqdpsO3N3C0U0pdN2Io3pZP6oOPp9NT3pP/BKz9GXvqlz6f7gjE0d8n6o&#10;WO/3i9f7krP0Y9Uu/T/Z6zb8Wn1FvFvvuld8r7bM6SHkWJeeJ8b2vZKjXNcx6I5qoqKmyoe+Bt1W&#10;8XTTV50eeJuU3LE1UoW+Td7vZU7GI0U2cLFft4zOTMzGTKg/aSyt3+f1vxg5m7/UojzwWFrsa6Sd&#10;e1k7vp1Ogpp0hB0W9uvrGd0nJL9Hfqcr1Xx3mu+GccptPnytcHy4lPStTQAAAAAAAAAAAAAAAAAA&#10;AAAAAAAAAAAAAAAAAAAAAAAAAAA5f8Jj6ifUX2lt+UaYDpKxeklv9yxe8QDNXuAh+rf7Xd49rF8K&#10;wmYHtNPnuR8XyqkPkk+iqdTFGin3lvaL/wC1NtwmqHlzp+orkjv4VrPjpSVU/uNMeeCXHZFHzbvV&#10;3lL+KdMkHeO1TyGd1jeWc2+iGTLt+6dZ8bKGuP3GI88FhRrhHnPKvbO6l/TTorZmVvar5VM7rEzL&#10;a2D9qm9/dis+NqcB6UdWv7LXCdmSpe9T5rNTR6IqJ4jzmqYZzRy8P20vyV23dXzfDtPovovH6dv7&#10;vWvTDzLbSVCOlk6fXqdZTRlEPDNYsrfIbZNJlG67d2kOYrt33Wu+MkO126mPPB71R8LLTq9Fcq79&#10;67nWRGSnzlar9vEbRGZmz6Vd9DMo6d9fXfGP+hy96P3OPPctrfZGPLIvaydPr18Z0dNOkK2Zlb2i&#10;+T/zNt1rNcp1o4vNjVcu37sV3wzjjtqaYiV1gtbMSnxWpwAAAAAAAAAAAAAAAAAAAAAAAAAAAAAA&#10;AAAAAAAAAAAAAAAcv+Ex9RPqL7S2/KNMB0lYvSS3+5YveIBmqBDdXncmnN5VfEyNf+Kwm7O97E0+&#10;e5HxnKlApKhe1U7GmjRR70KeaFM7hNUPeLrojkT/AC3Or+OnPV/1KmPPBOjXB5sR867nSRSr96FO&#10;2XyGd1iaoZMS82huSu/hKt+NnN1/1KPPcsrc/B5sR0u6qq7HSRSq81O09gbpMt5jfXSW8u+yu1Yv&#10;5Wp889KYyi5H8LjCdlSzoir1Pl1VWcvNU0za5o3fumleSr/n86/lCH0r0W1t2/ukXOzTK6SuiSST&#10;0X16ncU2pyhDmrRb5vi+y/8AMz0Utd+GtqHb6NZfJ4luVc78pKmiMtoUx54Jcz8JMo+97uZXbd52&#10;FNOSmzO09Y2M22oVT9QzKF8Xm+u+Mqcpej90jz3Le32PNgyTJ2r+7qu509NOkKuZhb23sGd15zL6&#10;Dor1xauX+GK74ZxxW2NMTK+2d2eE/KxOAAAAAAAAAAAAAAAAAAAAAAAAAAAAAAAAAAAAAAAAAAAA&#10;ADl/wmPqJ9RfaW35RpgOkrF6SW/3LF7xAM4CGaw/tb3v+Lj+EYTdm9poRsZyanzOSb6K47qKNHO7&#10;0qdunrjcN6Wxid+sVkb9ujbjWL+WHMXYy2nEeeC0jsLUvnVF67nVRQqN5Xt3eMxFJvS2sCquhGSq&#10;id9fWr+VHLXYy2pEeeC1tz8C06ydTqIpVW8p2qf+1M7hvSlGMrvpDdlTu+atX8bU+celsZTc+y9w&#10;vZYSte9T5LNWryzUM5tUeyDppPlO3+GT/DtPpvolrRa+6Rc7NLWyzokkm6fXqfRaaNIVeqnmln2J&#10;nclnOVkrubQ7LVT98K/4yUMxltKmPPBMmZnBZtA9+z1bt3HXxRnCl3lizbLsqGdxnebuh/aDyl3j&#10;823D4ypyl/8Aqsee5d2p+AzamSX6K5ep1UUzMKealvbeyN1iZh9M0TdzYlVv8t4r/hlOF2x2qqP4&#10;dBs7s8PoBWJwAAAAAAAAAAAAAAAAAAAAAAAAAAAAAAAAAAAAAAAAAAAAAcv+Ex9RPqL7S2/KNMB0&#10;lYvSS3+5YveIBnAQrWPrptfNv7yxf+IwnbM7TQjYzkVPkslQvau7j6BFGcOZ3lPNC+sZ3Deb2lk5&#10;tAsjcqfuhW/HFOTvRltaI88FxT2Fonzoq96HXU0TkpN5b27fWNtyTeSCkdvoFkb/APPa340cffjL&#10;a0ee5c2+wo8+Tde866KdFPmt518pndM0yxRd9Hbp91Kz42p8x9Lo9659l/heywly96nyCZ1eEyob&#10;Zso9kfTSTLHfY1dSv/FQ+oeiHUtfdIudllFpq9UXom59RpsqXpYeXm9fsDboSb0NlC9X6DZW9UXd&#10;1fXL+UnLVxltSI88FnRrgUafMqvcm3Xc7SKdFBMLO2d4jOUsZJNbnb6AZSv+e3D4ypxl7P2vEeeC&#10;9t9gR98m7lXfqdjFOinOf1hkw+o6HLth1T693rl/4zjgNtdrqdLs7kQ+iFUnAAAAAAAAAAAAAAAA&#10;AAAAAAAAAAAAAAAAAAAAAAAAAAAAABy/4TH1E+ovtLb8o0wHSVi9JLf7li94gGaoES1Uoay56fXq&#10;it9M+oqH06KyJm271R7XbJv49kUk4K7RZxFNdzg8MRTNy1NFL4I6tvznq7zj5Am/i7GP887WNuYO&#10;Iy3nPezMRPcp5sv32kZB+Jj/ADx7cwfz/hidmYnwT+22O+z6B3i3LZ6iOuqpaqpjpX8qSq11Qr2p&#10;tvturfXOZuYy1O0Onz08VpTh7sYTostXz19Xft/qIv8A+Jj/ADzqI27g8uuqfZmI8Fvmu/faRf8A&#10;8RH+eZ9u4P5ydmYiO59GtVjvkug14t77RUxV1ZLVVMVI/l7RWun52p37bq31zl7uMtXNoRfz93xX&#10;FvD3IwnR9756+qyNV+oTIPxUf5508bbwcR11d6hiJ7lvmrI/tFyD8TH+eZ9t4P52PZmI8H1DE7Re&#10;IdHq2Cqtk8NTUVVTWNpn7LIjHVCvRFRFVObbxbnAekf7hVc6DXPLJaYWzctWNy5xefn9iX+1TI/9&#10;ib+efOp2Fjs+q06Cs8/sX2qZH/sSfnnlOwcd8raLFbMrKG5XnSDII6a21DKm4PqJ4aaVEbIrVejk&#10;RU32RVRF8Z3/AKN017Ppt9PplnmkXLNc2Joji+WPuN/cv1DZAn/dRfpD6RG2cBl1/wAKX2biJ7lv&#10;m+//AGj5B+Ki/SGfbOA+cnZuIjufQbRZb7V6D3u3/Meoir62WsqIqWRW9oqPm52ouyqm6p65zN/G&#10;Wp2hF+J91ZW7FyMJ0fe+fLPflcrvORf+v/0Y/wBIdNG3cHl11POzMRnwefb377SL/wDiY/0hn27g&#10;/nYnZuI8H0Wy2O/T6C3ugWz1EVfXSVlTFSScqSK18yvai7KqbqnrnMXsbanaMX4n3Vvaw9yMH0fe&#10;+eunv++/nGyH8RF+kOnjbuCy66t9mYjwW9vf/tHyH8RF+kNvbuC+didmYjwfbtFaC40GE8l0t81H&#10;NNX1U6Qzbc7WPlVW77KqIu3rnF7UvW8VipuW9YldYKzcs2Ior4p8ncQE1UAAAAAAAAAAAAAAAAAA&#10;AAAAAAAAAAAAAAAAAAAAAAAAAB8ZzfjH4Y9N8ruGD51rHYrNfbU9jKyhqFk7SFzmNe1F2YqdWuav&#10;f40A5i49+MLhl1M4Uc4wnBNYrHeb5cmUKUtFTLIskqsrYJHIm7ETo1jl6r4gPtds8IbwYUdtpKWb&#10;XuydpDBHG/lpatyI5Goi9UhA9/nivBZ/j7s3+x1n6ENFk3hGuCmFiySa9WhWp38tDWuX+RId1HEY&#10;Xzyvga/x5UH+5bj/AEc0bnzyvga/x5UH+5bj/RwLvnlnBa5P6l1fWqanRXU9gub2ovk38zgWfPJ+&#10;DNy/tm1X82rn/RwHzyXgz/xnVX82rn/RwPH55bwj7bLl2R7f6JXNf/4AUTwlvCQvdlmSL7GIXT9A&#10;bs5SfPKuFSTpRXvLKxyfTNgw+5KrU8q7wp0BlKvzyXhm/wDvv+Zlx/RGWFPnkfDJ9jnP8y7j+iGo&#10;fPHOHd/oqaxajVEa90kWFVytX+Vm5gXfPHdAftc1N/mTXfmgeb/CN6BI36FiWp88nijZhFbzO9jd&#10;qIBZ88a0TT+5tq797BqoCvzx7RhOiabaw7f6D1P/ADA8n+Ec0kVd6bR/Wmrb43Q4POqJ7O7kA8/n&#10;jelv+I/XH+Ysv55oKr4R7THbZNEdcvY848v55kW/PEMRRd04btev5nN/TmG588RxP/5b9ev5nt/T&#10;AfSND+Kax655HW45btJ9S8Wko6RatarJrClFTSIjkb2bHpI7d/ot+XbuRV8RuxL7YGq8AAAAAAAA&#10;AAAAAAAAAAAAAAAAAAAAAAAAAAAAAAAAAAABD73pNp5kVyku97xO21lZPssk01O173qibdVVPJsn&#10;3gOYvCKaU6eY7wdZ/drJiVso6ynZb1jmipmNe1VroEXZUTdOiqn3wOjbFpBpylkt6Jidub/UsS7N&#10;p2tTq1F8SAZ7dJtOm/2p29fZhb/yDRcmlWnrHI+PFLexydythaip9/vA9k0ywhF3+YFN+CaN16ab&#10;4QifU3Rfgf8AUC5mneFNTZMbovxYFzdPsMbvtj1GnsM2Au84OIIu6WKl/BAr5xMR6f1hpen+SBVM&#10;JxROjbFSp/qm7OaqYXiyL6R0v4IM16Ydiyd1kpfwTObD0TFMcTolnpun+SMw86uPeK0U34BgXNxq&#10;ws6ttVMn+oYzF6Y9ZP3spvwDIp527Ci7/Mmm/AQC5Mfsid1rp/wEALj9kXvtVMvsxoAbYLKz6W10&#10;qf8AdIaC75iWn974PwEAotitP73U34pAzmqlktCfubTfikBm9YKKipnK6no4YlXvVjERTczewYXg&#10;AAAAAAAAAAAAAAAAAAAAAAAAAAAAAAAAAAAAAAAAAAAAEG1r0ixnXbTW76W5i6pSz3pIUqfM8qxy&#10;KkcrJWojk6p6Jjd/W3AmVDSpRUcNIioqQxtjRfKiIif/AKA9wAAAAAAAAFidANPmdxq7RiF7utBL&#10;2dTSW+onhfsi8sjY3K1dl6LsqJ0U871fR05vSzTv1xS580w4htVrtlWD2HIsFbW4/ddN7TlV2yRt&#10;dSRdnPNCjp6jsUej+z5t2cjGb83VE5TeuqiiqvPhTk0qyzppp4zmvwPjz0sz7zxut1GxG2bHq/KK&#10;NlPfLdXT1tBSMR8vaQ008klHLs5m0c7WKu7k72uQ2iM6Jrj/AE14XIonvZlZxf3ajqa+jXh1z5ai&#10;hskeWpG6e3orsfcr0dWOXzQqMlRY3J5lVe2X7Hv2xXEUUTXXplx+hpVlFGsy6DtN0pL3aqO8UL+e&#10;mroGVMDvLG9qOav8ioYqp3at04stDLKoAAAAAAAAAAAAAAAAAAAAAAAAAAAAAAAAAAAAAAAAAAAA&#10;AAAAAAAAAAAAAAAAAAAAAAAsAwr7aoL7Zq+yVMkkcNfTSUr3R7czWvarVVN/GiL0PO5R0lO6zRXu&#10;Vbz5nbOHWyWWrw2a0ZdfKelxbGI8QrKJW08kN8tscbWsjqueJXNVHN5uaFY1XmciqrV2N64i5VVv&#10;/wBzEznMT4MDG+GaGx4xfcHrdVcsu2OXSw1OOUNvqobez5mUcrOz9BNFTMmnexiNa1875F6Kq7qq&#10;qbxOUacSdUnr9FceuF0uV2nudybLc8PbhkjWuj5W0iOld2qbt37XeZeqqreiehMXK+komie9427f&#10;R101+CZY/Z4MdsNtx+mlkkhtlJDRxvk25nNjYjEVdkRN1RDM1b05vWn3YbE1ZVAAAAAAAAAAAAAA&#10;AAAAAAAAAAAAAAAAAAAAAAAAAAAAAAAAAAAAAAAAAAAAAAAAAAAAAAAAAADHeKeNTIqAAAAAAAAA&#10;AAAAAAAAAAAAAAAAAAAAAAAAAAB//9k=&#10;"
       id="image1"
       x="1.8520834"
       y="-9.1942139"
       sodipodi:insensitive="true" /><text
       xml:space="preserve"
       style="font-size:3.175px;font-family:'Latin Modern Math';-inkscape-font-specification:'Latin Modern Math';text-align:center;text-anchor:middle;fill:#000000;stroke-width:0.797999"
       x="122.36829"
       y="67.968094"
       id="text1"><tspan
         sodipodi:role="line"
         id="tspan1"
         style="stroke-width:0.798"
         x="122.36829"
         y="67.968094" /></text><rect
       style="fill:#ffffff;fill-opacity:1;stroke:none;stroke-width:0.353236"
       id="rect15"
       width="206.48694"
       height="72.409492"
       x="-218.19446"
       y="112.71251" /><g
       id="g16"><text
         xml:space="preserve"
         style="font-style:normal;font-variant:normal;font-weight:normal;font-stretch:normal;font-size:5.80724px;font-family:'Latin Modern Math';-inkscape-font-specification:'Latin Modern Math';fill:#000000;fill-opacity:1;stroke:none;stroke-width:0.484697"
         x="-154.93068"
         y="-152.4471"
         id="text2"
         transform="rotate(-90)"><tspan
           sodipodi:role="line"
           id="tspan2"
           style="text-align:center;text-anchor:middle;fill:#000000;fill-opacity:1;stroke-width:0.484698"
           x="-154.93068"
           y="-152.4471">Conteo</tspan></text><text
         xml:space="preserve"
         style="font-style:normal;font-variant:normal;font-weight:normal;font-stretch:normal;font-size:5.80724px;font-family:'Latin Modern Math';-inkscape-font-specification:'Latin Modern Math';fill:#000000;fill-opacity:1;stroke:none;stroke-width:0.484697"
         x="-113.90714"
         y="181.78201"
         id="text3"><tspan
           sodipodi:role="line"
           id="tspan3"
           style="text-align:center;text-anchor:middle;fill:#000000;fill-opacity:1;stroke-width:0.484698"
           x="-113.90714"
           y="181.78201">Elemento</tspan></text><path
         style="fill:none;stroke:#000000;stroke-width:0.8;stroke-linecap:round;stroke-linejoin:round;stroke-dasharray:none;stroke-opacity:1"
         d="m -154.03028,174.16021 h 80.269494"
         id="path7" /><path
         style="fill:none;stroke:#000000;stroke-width:0.6164;stroke-linecap:round;stroke-linejoin:round;stroke-dasharray:none;stroke-opacity:1"
         d="m -148.991,130.4052 v 48.89417"
         id="path8" /><rect
         style="fill:#80b3ff;stroke:#000000;stroke-width:0.042761;stroke-dasharray:none"
         id="rect9"
         width="7.9718747"
         height="12.929278"
         x="-146.31865"
         y="157.19019" /><rect
         style="fill:#80b3ff;stroke:#000000;stroke-width:0.0458334;stroke-dasharray:none"
         id="rect10"
         width="7.967546"
         height="14.862048"
         x="-136.69948"
         y="155.25633" /><rect
         style="fill:#80b3ff;stroke:#000000;stroke-width:0.0490042;stroke-dasharray:none"
         id="rect11"
         width="7.963079"
         height="16.999069"
         x="-127.0803"
         y="153.11818" /><rect
         style="fill:#99ff55;fill-opacity:1;stroke:#000000;stroke-width:0.0637205;stroke-dasharray:none"
         id="rect12"
         width="7.9423475"
         height="28.817011"
         x="-117.4529"
         y="141.29497" /><rect
         style="fill:#80b3ff;stroke:#000000;stroke-width:0.0332629;stroke-dasharray:none"
         id="rect13"
         width="7.9852552"
         height="7.8103862"
         x="-107.85732"
         y="162.31245" /><rect
         style="fill:#80b3ff;stroke:#000000;stroke-width:0.0576282;stroke-dasharray:none"
         id="rect14"
         width="7.9509301"
         height="23.544641"
         x="-98.22319"
         y="146.56952" /><rect
         style="fill:#80b3ff;stroke:#000000;stroke-width:0.0522847;stroke-dasharray:none"
         id="rect8"
         width="7.9584579"
         height="19.362419"
         x="-88.609909"
         y="150.75368" /><path
         style="fill:#99ff55;fill-opacity:1;stroke:#99ff55;stroke-width:0.665883;stroke-linecap:round;stroke-linejoin:round;stroke-dasharray:none;stroke-opacity:1;marker-end:url(#ArrowWideHeavy)"
         d="m -113.48179,130.44486 v 9.39426"
         id="path14" /></g><text
       xml:space="preserve"
       style="font-style:normal;font-variant:normal;font-weight:normal;font-stretch:normal;font-size:14.2809px;font-family:'Latin Modern Math';-inkscape-font-specification:'Latin Modern Math';fill:#000000;stroke-width:1.19194"
       x="-115.0938"
       y="125.4893"
       id="text15"><tspan
         sodipodi:role="line"
         id="tspan15"
         style="font-style:normal;font-variant:normal;font-weight:normal;font-stretch:normal;font-family:'Latin Modern Math';-inkscape-font-specification:'Latin Modern Math';text-align:center;text-anchor:middle;stroke-width:1.19195"
         x="-115.0938"
         y="125.4893">Moda</tspan></text></g></svg>
